loss,mape,val_loss,val_mape
0.17183327674865723,242650.140625,0.1340264081954956,237854.859375
0.11979681253433228,287637.0,0.08715851604938507,493723.65625
0.07367505878210068,645455.375,0.051683902740478516,620641.1875
0.04283053055405617,514600.40625,0.029325922951102257,624403.6875
0.024942511692643166,486278.53125,0.018145421519875526,590778.6875
0.01616150699555874,473179.25,0.013261416926980019,581018.0
0.012244587764143944,441474.6875,0.011159024201333523,540323.6875
0.010539969429373741,414775.9375,0.0103912353515625,500216.875
0.009591436944901943,349234.0625,0.009218474850058556,438645.96875
0.008874532766640186,347663.96875,0.00875098817050457,449258.40625
0.008344929665327072,296238.53125,0.008498464711010456,439436.28125
0.007878972217440605,283833.375,0.007944358512759209,407956.34375
0.007441949099302292,272369.84375,0.007357483729720116,394446.75
0.006982398219406605,267891.40625,0.006918851286172867,373789.125
0.006620884872972965,267402.96875,0.006579650565981865,383301.71875
0.006237492896616459,266879.3125,0.006392639596015215,388118.875
0.0059572067111730576,263384.65625,0.006040740758180618,375151.84375
0.005670548416674137,254404.171875,0.005605649668723345,349347.78125
0.005423045251518488,248310.34375,0.0053895218297839165,348486.8125
0.0051909685134887695,234307.15625,0.00521452259272337,332614.5
