loss,mape,val_loss,val_mape
0.09461132436990738,391300.96875,0.05959061160683632,272737.09375
0.06088987737894058,237057.8125,0.03658948466181755,256365.90625
0.04186873510479927,170809.75,0.023298991844058037,192428.84375
0.03093717433512211,159452.34375,0.01791052147746086,257737.25
0.025126362219452858,158737.671875,0.01555948331952095,280545.375
0.020961647853255272,181136.15625,0.01314939558506012,291676.34375
0.01847553625702858,193728.5,0.012299340218305588,281241.34375
0.016509581357240677,205675.953125,0.009777898900210857,316043.84375
0.013682294636964798,222197.609375,0.007991033606231213,276130.40625
0.011163687333464622,208221.90625,0.0060155936516821384,263163.53125
0.009892905130982399,183780.140625,0.005286155268549919,256872.984375
0.009229314513504505,180739.3125,0.00494051119312644,249709.5
0.008535067550837994,159384.015625,0.004628075752407312,245763.0
0.008233434520661831,152942.625,0.004523411393165588,234618.953125
0.007961596362292767,151622.109375,0.004405240062624216,231177.296875
0.00772874103859067,151080.09375,0.004281689878553152,229807.546875
0.007529840804636478,143929.546875,0.004250701982527971,221281.21875
0.007232140749692917,139208.578125,0.004147491883486509,224479.34375
0.007065568119287491,140394.171875,0.00411236984655261,212450.859375
0.006955532357096672,137765.953125,0.004119039513170719,208509.6875
